…
#Using the nrc lexicon, only the words that are associated to a sentiment of `joy`
nrc_joy <- get_sentiments("nrc") %>%
    filter(sentiment == "joy")

#Summarize the usage of `joy` words
tidy_books %>%
    semi_join(nrc_joy) %>%
    count(word, sort = T)
## # A tibble: 303 × 2
##       word     n
##      <chr> <int>
## 1     good   359
## 2    young   192
## 3   friend   166
## 4     hope   143
## 5    happy   125
## 6     love   117
## 7     deal    92
## 8    found    92
## 9  present    89
## 10    kind    82
## # ... with 293 more rows
```
…
bing_word_counts <- tidy_books %>%
    inner_join(get_sentiments("bing")) %>%
    count(word, sentiment, sort = T) %>%
    ungroup()

bing_word_counts
## # A tibble: 2,585 × 3
##        word sentiment     n
##       <chr>     <chr> <int>
## 1      miss  negative  1855
## 2      well  positive  1523
## 3      good  positive  1380
## 4     great  positive   981
## 5      like  positive   725
## 6    better  positive   639
## 7    enough  positive   613
## 8     happy  positive   534
## 9      love  positive   495
## 10 pleasure  positive   462
## # ... with 2,575 more rows
```
…
